cpu.vcd
$date
	Wed May 14 15:53:42 2025
$end
$version
	Icarus Verilog
$end
$timescale
	1s
$end
$scope module Top_Module_tb $end
$var reg 1 ! clk $end
$var reg 1 " rst $end
$scope module uut $end
$var wire 1 ! clk $end
$var wire 1 " rst $end
$var wire 1 # zero_top $end
$var wire 32 $ write_back_top [31:0] $end
$var wire 32 % read_data2_top [31:0] $end
$var wire 32 & read_data1_top [31:0] $end
$var wire 32 ' instruction_top [31:0] $end
$var wire 1 ( branch_top $end
$var wire 1 ) and_out_top $end
$var wire 32 * Sum_out_top [31:0] $end
$var wire 1 + Reg_write_top $end
$var wire 32 , Pc_in_top [31:0] $end
$var wire 32 - PC_top [31:0] $end
$var wire 32 . NexttoPc_top [31:0] $end
$var wire 32 / Mux1_out_top [31:0] $end
$var wire 1 0 MemtoReg_top $end
$var wire 32 1 Mem_data_out_top [31:0] $end
$var wire 1 2 Mem_Write_top $end
$var wire 1 3 Mem_Read_top $end
$var wire 32 4 ImmExt_top [31:0] $end
$var wire 4 5 Control_out_top [3:0] $end
$var wire 32 6 ALU_out_top [31:0] $end
$var wire 1 7 ALUSrc_top $end
$var wire 2 8 ALUOp_top [1:0] $end
$scope module PC $end
$var wire 1 ! clk $end
$var wire 1 " rst $end
$var wire 32 9 pc_in [31:0] $end
$var reg 32 : pc_out [31:0] $end
$upscope $end
$scope module Pc_adder $end
$var wire 32 ; fromPc [31:0] $end
$var wire 32 < NexttoPc [31:0] $end
$upscope $end
$scope module adder_logic $end
$var wire 32 = in_1 [31:0] $end
$var wire 32 > in_2 [31:0] $end
$var wire 32 ? Sum_out [31:0] $end
$upscope $end
$scope module alu_control $end
$var wire 3 @ fun3 [2:0] $end
$var wire 1 A fun7 $end
$var wire 2 B ALUOp [1:0] $end
$var reg 4 C Control_out [3:0] $end
$upscope $end
$scope module alu_unit $end
$var wire 4 D control_in [3:0] $end
$var wire 32 E B [31:0] $end
$var wire 32 F A [31:0] $end
$var reg 32 G ALU_out [31:0] $end
$var reg 1 # zero $end
$upscope $end
$scope module control_unit $end
$var wire 7 H instruction [6:0] $end
$var reg 2 I ALUOp [1:0] $end
$var reg 1 7 ALUSrc $end
$var reg 1 2 MemWrite $end
$var reg 1 3 Memread $end
$var reg 1 0 MemtoReg $end
$var reg 1 + Reg_write $end
$var reg 1 ( branch $end
$upscope $end
$scope module data_memory $end
$var wire 1 3 Mem_Read $end
$var wire 1 2 Mem_Write $end
$var wire 32 J Read_addr [31:0] $end
$var wire 1 ! clk $end
$var wire 1 " rst $end
$var wire 32 K Write_Data [31:0] $end
$var reg 32 L Mem_data_out [31:0] $end
$var integer 32 M i [31:0] $end
$upscope $end
$scope module instruction_mem $end
$var wire 1 ! clk $end
$var wire 32 N read_addr [31:0] $end
$var wire 1 " rst $end
$var reg 32 O instruction_out [31:0] $end
$var integer 32 P i [31:0] $end
$upscope $end
$scope module mux_1_Alu $end
$var wire 1 7 Sel1 $end
$var wire 32 Q Mux1_out [31:0] $end
$var wire 32 R B1 [31:0] $end
$var wire 32 S A1 [31:0] $end
$upscope $end
$scope module mux_2_adder_pc $end
$var wire 32 T A2 [31:0] $end
$var wire 32 U B2 [31:0] $end
$var wire 1 ) Sel2 $end
$var wire 32 V Mux2_out [31:0] $end
$upscope $end
$scope module mux_3_data_mem $end
$var wire 32 W A3 [31:0] $end
$var wire 32 X B3 [31:0] $end
$var wire 1 0 Sel3 $end
$var wire 32 Y Mux3_out [31:0] $end
$upscope $end
$scope module reg_file $end
$var wire 5 Z Rd [4:0] $end
$var wire 1 + Reg_write $end
$var wire 5 [ Rs1 [4:0] $end
$var wire 5 \ Rs2 [4:0] $end
$var wire 1 ! clk $end
$var wire 1 " rst $end
$var wire 32 ] write_data [31:0] $end
$var wire 32 ^ read_data2 [31:0] $end
$var wire 32 _ read_data1 [31:0] $end
$upscope $end
$scope module u_Immidiate_generator $end
$var wire 7 ` Opcode [6:0] $end
$var wire 32 a instruction [31:0] $end
$var reg 32 b ImmExt [31:0] $end
$upscope $end
$scope module u_and_gate $end
$var wire 1 ) and_out $end
$var wire 1 ( branch $end
$var wire 1 # zero $end
$upscope $end
$upscope $end
$upscope $end
$enddefinitions $end
$comment Show the parameter values. $end
$dumpall
$end
#0
$dumpvars
b0 b
b0 a
b0 `
b0 _
b0 ^
b0 ]
b0 \
b0 [
b0 Z
b0 Y
bx X
b0 W
b100 V
b0 U
b100 T
b0 S
b0 R
b0 Q
b1000000 P
b0 O
b0 N
b1000000 M
bx L
b0 K
b0 J
b0 I
b0 H
b0 G
b0 F
b0 E
b10 D
b10 C
b0 B
0A
b0 @
b0 ?
b0 >
b0 =
b100 <
b0 ;
b0 :
b100 9
b0 8
07
b0 6
b10 5
b0 4
03
02
bx 1
00
b0 /
b100 .
b0 -
b100 ,
0+
b0 *
0)
0(
b0 '
b0 &
b0 %
b0 $
0#
1"
0!
$end
#5
b0 1
b0 L
b0 X
b1000000 M
1!
#10
0!
#12
0"
#15
b1101001 $
b1101001 Y
b1101001 ]
b1000001 /
b1000001 E
b1000001 Q
b1101001 6
b1101001 G
b1101001 J
b1101001 W
b1000001 %
b1000001 K
b1000001 S
b1000001 ^
b101000 &
b101000 F
b101000 _
b1011001 H
b1011001 `
b110 Z
b11001 \
b10000 [
b1000 ,
b1000 9
b1000 V
b1100110000000001101011001 '
b1100110000000001101011001 O
b1100110000000001101011001 a
b1000 .
b1000 <
b1000 T
b100 *
b100 ?
b100 U
b100 -
b100 :
b100 ;
b100 =
b100 N
1!
#20
0!
#25
b110 5
b110 C
b110 D
b11111111111111111111111111101010 $
b11111111111111111111111111101010 Y
b11111111111111111111111111101010 ]
b11000 /
b11000 E
b11000 Q
b11111111111111111111111111101010 6
b11111111111111111111111111101010 G
b11111111111111111111111111101010 J
b11111111111111111111111111101010 W
1+
b10 8
b10 B
b10 I
b11000 %
b11000 K
b11000 S
b11000 ^
b10 &
b10 F
b10 _
1A
b110011 H
b110011 `
b101 Z
b11 \
b1000 [
b1100 ,
b1100 9
b1100 V
b1000000001101000000001010110011 '
b1000000001101000000001010110011 O
b1000000001101000000001010110011 a
b1100 .
b1100 <
b1100 T
b1000 *
b1000 ?
b1000 U
b1000 -
b1000 :
b1000 ;
b1000 =
b1000 N
1!
#30
0!
#35
b0 $
b0 Y
b0 ]
b0 6
b0 G
b0 J
b0 W
b0 5
b0 C
b0 D
b111 @
0A
b1 Z
b10 [
b10000 ,
b10000 9
b10000 V
b1100010111000010110011 '
b1100010111000010110011 O
b1100010111000010110011 a
b10000 .
b10000 <
b10000 T
b1100 *
b1100 ?
b1100 U
b1100 -
b1100 :
b1100 ;
b1100 =
b1100 N
1!
#40
0!
#45
b1 5
b1 C
b1 D
b11111111111111111111111111111010 $
b11111111111111111111111111111010 Y
b11111111111111111111111111111010 ]
b11111111111111111111111111101010 /
b11111111111111111111111111101010 E
b11111111111111111111111111101010 Q
b11111111111111111111111111111010 6
b11111111111111111111111111111010 G
b11111111111111111111111111111010 J
b11111111111111111111111111111010 W
b11111111111111111111111111101010 %
b11111111111111111111111111101010 K
b11111111111111111111111111101010 S
b11111111111111111111111111101010 ^
b11000 &
b11000 F
b11000 _
b110 @
b100 Z
b101 \
b11 [
b10100 ,
b10100 9
b10100 V
b10100011110001000110011 '
b10100011110001000110011 O
b10100011110001000110011 a
b10100 .
b10100 <
b10100 T
b10000 *
b10000 ?
b10000 U
b10000 -
b10000 :
b10000 ;
b10000 =
b10000 N
1!
#50
0!
#55
b10 5
b10 C
b10 D
b1101000 $
b1101000 Y
b1101000 ]
b1101000 6
b1101000 G
b1101000 J
b1101000 W
b11000 /
b11000 E
b11000 Q
0+
b0 8
b0 B
b0 I
b11000 %
b11000 K
b11000 S
b11000 ^
b1010000 &
b1010000 F
b1010000 _
b0 @
b10011 H
b10011 `
b10110 Z
b11 \
b10101 [
b11000 ,
b11000 9
b11000 V
b1110101000101100010011 '
b1110101000101100010011 O
b1110101000101100010011 a
b11000 .
b11000 <
b11000 T
b10100 *
b10100 ?
b10100 U
b10100 -
b10100 :
b10100 ;
b10100 =
b10100 N
1!
#60
0!
#65
b0 5
b0 C
b0 D
b0 $
b0 Y
b0 ]
b0 /
b0 E
b0 Q
b0 6
b0 G
b0 J
b0 W
b0 %
b0 K
b0 S
b0 ^
b10 &
b10 F
b10 _
b110 @
b1001 Z
b1 \
b1000 [
b11100 ,
b11100 9
b11100 V
b101000110010010010011 '
b101000110010010010011 O
b101000110010010010011 a
b11100 .
b11100 <
b11100 T
b11000 *
b11000 ?
b11000 U
b11000 -
b11000 :
b11000 ;
b11000 =
b11000 N
1!
#70
0!
#75
b1010 6
b1010 G
b1010 J
b1010 W
b1111 /
b1111 E
b1111 Q
17
10
1+
13
b11110 %
b11110 K
b11110 S
b11110 ^
b11111111111111111111111111101010 &
b11111111111111111111111111101010 F
b11111111111111111111111111101010 _
b1111 4
b1111 >
b1111 R
b1111 b
b10 @
b11 H
b11 `
b1000 Z
b1111 \
b101 [
b100000 ,
b100000 9
b100000 V
b111100101010010000000011 '
b111100101010010000000011 O
b111100101010010000000011 a
b100000 .
b100000 <
b100000 T
b101011 *
b101011 ?
b101011 U
b11100 -
b11100 :
b11100 ;
b11100 =
b11100 N
1!
#80
0!
#85
b0 6
b0 G
b0 J
b0 W
b11 /
b11 E
b11 Q
b11000 %
b11000 K
b11000 S
b11000 ^
b11000 &
b11000 F
b11000 _
b11 4
b11 >
b11 R
b11 b
b1001 Z
b11 \
b11 [
b100100 ,
b100100 9
b100100 V
b1100011010010010000011 '
b1100011010010010000011 O
b1100011010010010000011 a
b100100 .
b100100 <
b100100 T
b100011 *
b100011 ?
b100011 U
b100000 -
b100000 :
b100000 ;
b100000 =
b100000 N
1!
#90
0!
#95
b1000 $
b1000 Y
b1000 ]
b1000 6
b1000 G
b1000 J
b1000 W
b1100 /
b1100 E
b1100 Q
00
0+
03
12
b11110 %
b11110 K
b11110 S
b11110 ^
b11111111111111111111111111101010 &
b11111111111111111111111111101010 F
b11111111111111111111111111101010 _
b1100 4
b1100 >
b1100 R
b1100 b
b100011 H
b100011 `
b1100 Z
b1111 \
b101 [
b101000 ,
b101000 9
b101000 V
b111100101010011000100011 '
b111100101010011000100011 O
b111100101010011000100011 a
b101000 .
b101000 <
b101000 T
b110000 *
b110000 ?
b110000 U
b100100 -
b100100 :
b100100 ;
b100100 =
b100100 N
1!
#100
0!
#105
b1010 /
b1010 E
b1010 Q
b10100 %
b10100 K
b10100 S
b10100 ^
b101100 &
b101100 F
b101100 _
b1010 4
b1010 >
b1010 R
b1010 b
b1010 Z
b1110 \
b110 [
b101100 ,
b101100 9
b101100 V
b111000110010010100100011 '
b111000110010010100100011 O
b111000110010010100100011 a
b101100 .
b101100 <
b101100 T
b110010 *
b110010 ?
b110010 U
b101000 -
b101000 :
b101000 ;
b101000 =
b101000 N
1!
#110
0!
#115
b0 $
b0 Y
b0 ]
b0 6
b0 G
b0 J
b0 W
b0 /
b0 E
b0 Q
07
02
1(
b1 8
b1 B
b1 I
b0 %
b0 K
b0 S
b0 ^
b0 &
b0 F
b0 _
b1100 4
b1100 >
b1100 R
b1100 b
b0 @
b1100011 H
b1100011 `
b1100 Z
b1001 \
b1001 [
b110000 ,
b110000 9
b110000 V
b100101001000011001100011 '
b100101001000011001100011 O
b100101001000011001100011 a
b110000 .
b110000 <
b110000 T
b111000 *
b111000 ?
b111000 U
b101100 -
b101100 :
b101100 ;
b101100 =
b101100 N
1!
#120
0!
#125
b10 5
b10 C
b10 D
0(
b0 8
b0 B
b0 I
b0 4
b0 >
b0 R
b0 b
b0 H
b0 `
b0 Z
b0 \
b0 [
b110100 ,
b110100 9
b110100 V
b0 '
b0 O
b0 a
b110100 .
b110100 <
b110100 T
b110000 *
b110000 ?
b110000 U
b110000 -
b110000 :
b110000 ;
b110000 =
b110000 N
1!
#130
0!
#135
b111000 ,
b111000 9
b111000 V
b111000 .
b111000 <
b111000 T
b110100 *
b110100 ?
b110100 U
b110100 -
b110100 :
b110100 ;
b110100 =
b110100 N
1!
#140
0!
#145
b111100 ,
b111100 9
b111100 V
b111100 .
b111100 <
b111100 T
b111000 *
b111000 ?
b111000 U
b111000 -
b111000 :
b111000 ;
b111000 =
b111000 N
1!
#150
0!
#155
b1000000 ,
b1000000 9
b1000000 V
b1000000 .
b1000000 <
b1000000 T
b111100 *
b111100 ?
b111100 U
b111100 -
b111100 :
b111100 ;
b111100 =
b111100 N
1!
#160
0!
#165
b1000100 ,
b1000100 9
b1000100 V
b1000100 .
b1000100 <
b1000100 T
b1000000 *
b1000000 ?
b1000000 U
b1000000 -
b1000000 :
b1000000 ;
b1000000 =
b1000000 N
1!
#170
0!
#175
b1001000 ,
b1001000 9
b1001000 V
b1001000 .
b1001000 <
b1001000 T
b1000100 *
b1000100 ?
b1000100 U
b1000100 -
b1000100 :
b1000100 ;
b1000100 =
b1000100 N
1!
#180
0!
#185
b1001100 ,
b1001100 9
b1001100 V
b1001100 .
b1001100 <
b1001100 T
b1001000 *
b1001000 ?
b1001000 U
b1001000 -
b1001000 :
b1001000 ;
b1001000 =
b1001000 N
1!
#190
0!
#195
b1010000 ,
b1010000 9
b1010000 V
b1010000 .
b1010000 <
b1010000 T
b1001100 *
b1001100 ?
b1001100 U
b1001100 -
b1001100 :
b1001100 ;
b1001100 =
b1001100 N
1!
#200
0!
#205
b1010100 ,
b1010100 9
b1010100 V
b1010100 .
b1010100 <
b1010100 T
b1010000 *
b1010000 ?
b1010000 U
b1010000 -
b1010000 :
b1010000 ;
b1010000 =
b1010000 N
1!
#210
0!
#215
b1011000 ,
b1011000 9
b1011000 V
b1011000 .
b1011000 <
b1011000 T
b1010100 *
b1010100 ?
b1010100 U
b1010100 -
b1010100 :
b1010100 ;
b1010100 =
b1010100 N
1!
#220
0!
#225
b1011100 ,
b1011100 9
b1011100 V
b1011100 .
b1011100 <
b1011100 T
b1011000 *
b1011000 ?
b1011000 U
b1011000 -
b1011000 :
b1011000 ;
b1011000 =
b1011000 N
1!
#230
0!
#235
b1100000 ,
b1100000 9
b1100000 V
b1100000 .
b1100000 <
b1100000 T
b1011100 *
b1011100 ?
b1011100 U
b1011100 -
b1011100 :
b1011100 ;
b1011100 =
b1011100 N
1!
#240
0!
#245
b1100100 ,
b1100100 9
b1100100 V
b1100100 .
b1100100 <
b1100100 T
b1100000 *
b1100000 ?
b1100000 U
b1100000 -
b1100000 :
b1100000 ;
b1100000 =
b1100000 N
1!
#250
0!
#255
b1101000 ,
b1101000 9
b1101000 V
b1101000 .
b1101000 <
b1101000 T
b1100100 *
b1100100 ?
b1100100 U
b1100100 -
b1100100 :
b1100100 ;
b1100100 =
b1100100 N
1!
#260
0!
#265
b1101100 ,
b1101100 9
b1101100 V
b1101100 .
b1101100 <
b1101100 T
b1101000 *
b1101000 ?
b1101000 U
b1101000 -
b1101000 :
b1101000 ;
b1101000 =
b1101000 N
1!
#270
0!
#275
b1110000 ,
b1110000 9
b1110000 V
b1110000 .
b1110000 <
b1110000 T
b1101100 *
b1101100 ?
b1101100 U
b1101100 -
b1101100 :
b1101100 ;
b1101100 =
b1101100 N
1!
#280
0!
#285
b1110100 ,
b1110100 9
b1110100 V
b1110100 .
b1110100 <
b1110100 T
b1110000 *
b1110000 ?
b1110000 U
b1110000 -
b1110000 :
b1110000 ;
b1110000 =
b1110000 N
1!
#290
0!
#295
b1111000 ,
b1111000 9
b1111000 V
b1111000 .
b1111000 <
b1111000 T
b1110100 *
b1110100 ?
b1110100 U
b1110100 -
b1110100 :
b1110100 ;
b1110100 =
b1110100 N
1!
#300
0!
#305
b1111100 ,
b1111100 9
b1111100 V
b1111100 .
b1111100 <
b1111100 T
b1111000 *
b1111000 ?
b1111000 U
b1111000 -
b1111000 :
b1111000 ;
b1111000 =
b1111000 N
1!
#310
0!
#315
b10000000 ,
b10000000 9
b10000000 V
b10000000 .
b10000000 <
b10000000 T
b1111100 *
b1111100 ?
b1111100 U
b1111100 -
b1111100 :
b1111100 ;
b1111100 =
b1111100 N
1!
#320
0!
#325
b10000100 ,
b10000100 9
b10000100 V
b10000100 .
b10000100 <
b10000100 T
b10000000 *
b10000000 ?
b10000000 U
b10000000 -
b10000000 :
b10000000 ;
b10000000 =
b10000000 N
1!
#330
0!
#335
b10001000 ,
b10001000 9
b10001000 V
b10001000 .
b10001000 <
b10001000 T
b10000100 *
b10000100 ?
b10000100 U
b10000100 -
b10000100 :
b10000100 ;
b10000100 =
b10000100 N
1!
#340
0!
#345
b10001100 ,
b10001100 9
b10001100 V
b10001100 .
b10001100 <
b10001100 T
b10001000 *
b10001000 ?
b10001000 U
b10001000 -
b10001000 :
b10001000 ;
b10001000 =
b10001000 N
1!
#350
0!
#355
b10010000 ,
b10010000 9
b10010000 V
b10010000 .
b10010000 <
b10010000 T
b10001100 *
b10001100 ?
b10001100 U
b10001100 -
b10001100 :
b10001100 ;
b10001100 =
b10001100 N
1!
#360
0!
#365
b10010100 ,
b10010100 9
b10010100 V
b10010100 .
b10010100 <
b10010100 T
b10010000 *
b10010000 ?
b10010000 U
b10010000 -
b10010000 :
b10010000 ;
b10010000 =
b10010000 N
1!
#370
0!
#375
b10011000 ,
b10011000 9
b10011000 V
b10011000 .
b10011000 <
b10011000 T
b10010100 *
b10010100 ?
b10010100 U
b10010100 -
b10010100 :
b10010100 ;
b10010100 =
b10010100 N
1!
#380
0!
#385
b10011100 ,
b10011100 9
b10011100 V
b10011100 .
b10011100 <
b10011100 T
b10011000 *
b10011000 ?
b10011000 U
b10011000 -
b10011000 :
b10011000 ;
b10011000 =
b10011000 N
1!
#390
0!
#395
b10100000 ,
b10100000 9
b10100000 V
b10100000 .
b10100000 <
b10100000 T
b10011100 *
b10011100 ?
b10011100 U
b10011100 -
b10011100 :
b10011100 ;
b10011100 =
b10011100 N
1!
#400
0!
#405
b10100100 ,
b10100100 9
b10100100 V
b10100100 .
b10100100 <
b10100100 T
b10100000 *
b10100000 ?
b10100000 U
b10100000 -
b10100000 :
b10100000 ;
b10100000 =
b10100000 N
1!
#410
0!
#415
b10101000 ,
b10101000 9
b10101000 V
b10101000 .
b10101000 <
b10101000 T
b10100100 *
b10100100 ?
b10100100 U
b10100100 -
b10100100 :
b10100100 ;
b10100100 =
b10100100 N
1!
#420
0!
#425
b10101100 ,
b10101100 9
b10101100 V
b10101100 .
b10101100 <
b10101100 T
b10101000 *
b10101000 ?
b10101000 U
b10101000 -
b10101000 :
b10101000 ;
b10101000 =
b10101000 N
1!
#430
0!
#435
b10110000 ,
b10110000 9
b10110000 V
b10110000 .
b10110000 <
b10110000 T
b10101100 *
b10101100 ?
b10101100 U
b10101100 -
b10101100 :
b10101100 ;
b10101100 =
b10101100 N
1!
#440
0!
#445
b10110100 ,
b10110100 9
b10110100 V
b10110100 .
b10110100 <
b10110100 T
b10110000 *
b10110000 ?
b10110000 U
b10110000 -
b10110000 :
b10110000 ;
b10110000 =
b10110000 N
1!
#450
0!
#455
b10111000 ,
b10111000 9
b10111000 V
b10111000 .
b10111000 <
b10111000 T
b10110100 *
b10110100 ?
b10110100 U
b10110100 -
b10110100 :
b10110100 ;
b10110100 =
b10110100 N
1!
#460
0!
#465
b10111100 ,
b10111100 9
b10111100 V
b10111100 .
b10111100 <
b10111100 T
b10111000 *
b10111000 ?
b10111000 U
b10111000 -
b10111000 :
b10111000 ;
b10111000 =
b10111000 N
1!
#470
0!
#475
b11000000 ,
b11000000 9
b11000000 V
b11000000 .
b11000000 <
b11000000 T
b10111100 *
b10111100 ?
b10111100 U
b10111100 -
b10111100 :
b10111100 ;
b10111100 =
b10111100 N
1!
#480
0!
#485
b11000100 ,
b11000100 9
b11000100 V
b11000100 .
b11000100 <
b11000100 T
b11000000 *
b11000000 ?
b11000000 U
b11000000 -
b11000000 :
b11000000 ;
b11000000 =
b11000000 N
1!
#490
0!
#495
b11001000 ,
b11001000 9
b11001000 V
b11001000 .
b11001000 <
b11001000 T
b11000100 *
b11000100 ?
b11000100 U
b11000100 -
b11000100 :
b11000100 ;
b11000100 =
b11000100 N
1!
#500
0!
#505
b11001100 ,
b11001100 9
b11001100 V
b11001100 .
b11001100 <
b11001100 T
b11001000 *
b11001000 ?
b11001000 U
b11001000 -
b11001000 :
b11001000 ;
b11001000 =
b11001000 N
1!
#510
0!
#515
b11010000 ,
b11010000 9
b11010000 V
b11010000 .
b11010000 <
b11010000 T
b11001100 *
b11001100 ?
b11001100 U
b11001100 -
b11001100 :
b11001100 ;
b11001100 =
b11001100 N
1!
#520
0!
#525
b11010100 ,
b11010100 9
b11010100 V
b11010100 .
b11010100 <
b11010100 T
b11010000 *
b11010000 ?
b11010000 U
b11010000 -
b11010000 :
b11010000 ;
b11010000 =
b11010000 N
1!
#530
0!
#535
b11011000 ,
b11011000 9
b11011000 V
b11011000 .
b11011000 <
b11011000 T
b11010100 *
b11010100 ?
b11010100 U
b11010100 -
b11010100 :
b11010100 ;
b11010100 =
b11010100 N
1!
#540
0!
#545
b11011100 ,
b11011100 9
b11011100 V
b11011100 .
b11011100 <
b11011100 T
b11011000 *
b11011000 ?
b11011000 U
b11011000 -
b11011000 :
b11011000 ;
b11011000 =
b11011000 N
1!
#550
0!
#555
b11100000 ,
b11100000 9
b11100000 V
b11100000 .
b11100000 <
b11100000 T
b11011100 *
b11011100 ?
b11011100 U
b11011100 -
b11011100 :
b11011100 ;
b11011100 =
b11011100 N
1!
#560
0!
#565
b11100100 ,
b11100100 9
b11100100 V
b11100100 .
b11100100 <
b11100100 T
b11100000 *
b11100000 ?
b11100000 U
b11100000 -
b11100000 :
b11100000 ;
b11100000 =
b11100000 N
1!
#570
0!
#575
b11101000 ,
b11101000 9
b11101000 V
b11101000 .
b11101000 <
b11101000 T
b11100100 *
b11100100 ?
b11100100 U
b11100100 -
b11100100 :
b11100100 ;
b11100100 =
b11100100 N
1!
#580
0!
#585
b11101100 ,
b11101100 9
b11101100 V
b11101100 .
b11101100 <
b11101100 T
b11101000 *
b11101000 ?
b11101000 U
b11101000 -
b11101000 :
b11101000 ;
b11101000 =
b11101000 N
1!
#590
0!
#595
b11110000 ,
b11110000 9
b11110000 V
b11110000 .
b11110000 <
b11110000 T
b11101100 *
b11101100 ?
b11101100 U
b11101100 -
b11101100 :
b11101100 ;
b11101100 =
b11101100 N
1!
#600
0!
#605
b11110100 ,
b11110100 9
b11110100 V
b11110100 .
b11110100 <
b11110100 T
b11110000 *
b11110000 ?
b11110000 U
b11110000 -
b11110000 :
b11110000 ;
b11110000 =
b11110000 N
1!
#610
0!
#615
b11111000 ,
b11111000 9
b11111000 V
b11111000 .
b11111000 <
b11111000 T
b11110100 *
b11110100 ?
b11110100 U
b11110100 -
b11110100 :
b11110100 ;
b11110100 =
b11110100 N
1!
#620
0!
#625
b11111100 ,
b11111100 9
b11111100 V
b11111100 .
b11111100 <
b11111100 T
b11111000 *
b11111000 ?
b11111000 U
b11111000 -
b11111000 :
b11111000 ;
b11111000 =
b11111000 N
1!
#630
0!
#635
b100000000 ,
b100000000 9
b100000000 V
b100000000 .
b100000000 <
b100000000 T
b11111100 *
b11111100 ?
b11111100 U
b11111100 -
b11111100 :
b11111100 ;
b11111100 =
b11111100 N
1!
#640
0!
#645
b0 5
b0 C
b0 D
bx $
bx Y
bx ]
bx /
bx E
bx Q
bx 6
bx G
bx J
bx W
bx %
bx K
bx S
bx ^
bx &
bx F
bx _
bx @
xA
bx H
bx `
bx Z
bx \
bx [
b100000100 ,
b100000100 9
b100000100 V
bx '
bx O
bx a
b100000100 .
b100000100 <
b100000100 T
b100000000 *
b100000000 ?
b100000000 U
b100000000 -
b100000000 :
b100000000 ;
b100000000 =
b100000000 N
1!
#650
0!
#655
b100001000 ,
b100001000 9
b100001000 V
b100001000 .
b100001000 <
b100001000 T
b100000100 *
b100000100 ?
b100000100 U
b100000100 -
b100000100 :
b100000100 ;
b100000100 =
b100000100 N
1!
#660
0!
#665
b100001100 ,
b100001100 9
b100001100 V
b100001100 .
b100001100 <
b100001100 T
b100001000 *
b100001000 ?
b100001000 U
b100001000 -
b100001000 :
b100001000 ;
b100001000 =
b100001000 N
1!
#670
0!
#675
b100010000 ,
b100010000 9
b100010000 V
b100010000 .
b100010000 <
b100010000 T
b100001100 *
b100001100 ?
b100001100 U
b100001100 -
b100001100 :
b100001100 ;
b100001100 =
b100001100 N
1!
#680
0!
#685
b100010100 ,
b100010100 9
b100010100 V
b100010100 .
b100010100 <
b100010100 T
b100010000 *
b100010000 ?
b100010000 U
b100010000 -
b100010000 :
b100010000 ;
b100010000 =
b100010000 N
1!
#690
0!
#695
b100011000 ,
b100011000 9
b100011000 V
b100011000 .
b100011000 <
b100011000 T
b100010100 *
b100010100 ?
b100010100 U
b100010100 -
b100010100 :
b100010100 ;
b100010100 =
b100010100 N
1!
#700
0!
#705
b100011100 ,
b100011100 9
b100011100 V
b100011100 .
b100011100 <
b100011100 T
b100011000 *
b100011000 ?
b100011000 U
b100011000 -
b100011000 :
b100011000 ;
b100011000 =
b100011000 N
1!
#710
0!
#715
b100100000 ,
b100100000 9
b100100000 V
b100100000 .
b100100000 <
b100100000 T
b100011100 *
b100011100 ?
b100011100 U
b100011100 -
b100011100 :
b100011100 ;
b100011100 =
b100011100 N
1!
#720
0!
#725
b100100100 ,
b100100100 9
b100100100 V
b100100100 .
b100100100 <
b100100100 T
b100100000 *
b100100000 ?
b100100000 U
b100100000 -
b100100000 :
b100100000 ;
b100100000 =
b100100000 N
1!
#730
0!
#735
b100101000 ,
b100101000 9
b100101000 V
b100101000 .
b100101000 <
b100101000 T
b100100100 *
b100100100 ?
b100100100 U
b100100100 -
b100100100 :
b100100100 ;
b100100100 =
b100100100 N
1!
#740
0!
#745
b100101100 ,
b100101100 9
b100101100 V
b100101100 .
b100101100 <
b100101100 T
b100101000 *
b100101000 ?
b100101000 U
b100101000 -
b100101000 :
b100101000 ;
b100101000 =
b100101000 N
1!
#750
0!
#755
b100110000 ,
b100110000 9
b100110000 V
b100110000 .
b100110000 <
b100110000 T
b100101100 *
b100101100 ?
b100101100 U
b100101100 -
b100101100 :
b100101100 ;
b100101100 =
b100101100 N
1!
#760
0!
#765
b100110100 ,
b100110100 9
b100110100 V
b100110100 .
b100110100 <
b100110100 T
b100110000 *
b100110000 ?
b100110000 U
b100110000 -
b100110000 :
b100110000 ;
b100110000 =
b100110000 N
1!
#770
0!
#775
b100111000 ,
b100111000 9
b100111000 V
b100111000 .
b100111000 <
b100111000 T
b100110100 *
b100110100 ?
b100110100 U
b100110100 -
b100110100 :
b100110100 ;
b100110100 =
b100110100 N
1!
#780
0!
#785
b100111100 ,
b100111100 9
b100111100 V
b100111100 .
b100111100 <
b100111100 T
b100111000 *
b100111000 ?
b100111000 U
b100111000 -
b100111000 :
b100111000 ;
b100111000 =
b100111000 N
1!
#790
0!
#795
b101000000 ,
b101000000 9
b101000000 V
b101000000 .
b101000000 <
b101000000 T
b100111100 *
b100111100 ?
b100111100 U
b100111100 -
b100111100 :
b100111100 ;
b100111100 =
b100111100 N
1!
#800
0!
#805
b101000100 ,
b101000100 9
b101000100 V
b101000100 .
b101000100 <
b101000100 T
b101000000 *
b101000000 ?
b101000000 U
b101000000 -
b101000000 :
b101000000 ;
b101000000 =
b101000000 N
1!
#810
0!
#815
b101001000 ,
b101001000 9
b101001000 V
b101001000 .
b101001000 <
b101001000 T
b101000100 *
b101000100 ?
b101000100 U
b101000100 -
b101000100 :
b101000100 ;
b101000100 =
b101000100 N
1!
#820
0!
#825
b101001100 ,
b101001100 9
b101001100 V
b101001100 .
b101001100 <
b101001100 T
b101001000 *
b101001000 ?
b101001000 U
b101001000 -
b101001000 :
b101001000 ;
b101001000 =
b101001000 N
1!
#830
0!
#835
b101010000 ,
b101010000 9
b101010000 V
b101010000 .
b101010000 <
b101010000 T
b101001100 *
b101001100 ?
b101001100 U
b101001100 -
b101001100 :
b101001100 ;
b101001100 =
b101001100 N
1!
#840
0!
#845
b101010100 ,
b101010100 9
b101010100 V
b101010100 .
b101010100 <
b101010100 T
b101010000 *
b101010000 ?
b101010000 U
b101010000 -
b101010000 :
b101010000 ;
b101010000 =
b101010000 N
1!
#850
0!
#855
b101011000 ,
b101011000 9
b101011000 V
b101011000 .
b101011000 <
b101011000 T
b101010100 *
b101010100 ?
b101010100 U
b101010100 -
b101010100 :
b101010100 ;
b101010100 =
b101010100 N
1!
#860
0!
#865
b101011100 ,
b101011100 9
b101011100 V
b101011100 .
b101011100 <
b101011100 T
b101011000 *
b101011000 ?
b101011000 U
b101011000 -
b101011000 :
b101011000 ;
b101011000 =
b101011000 N
1!
#870
0!
#875
b101100000 ,
b101100000 9
b101100000 V
b101100000 .
b101100000 <
b101100000 T
b101011100 *
b101011100 ?
b101011100 U
b101011100 -
b101011100 :
b101011100 ;
b101011100 =
b101011100 N
1!
#880
0!
#885
b101100100 ,
b101100100 9
b101100100 V
b101100100 .
b101100100 <
b101100100 T
b101100000 *
b101100000 ?
b101100000 U
b101100000 -
b101100000 :
b101100000 ;
b101100000 =
b101100000 N
1!
#890
0!
#895
b101101000 ,
b101101000 9
b101101000 V
b101101000 .
b101101000 <
b101101000 T
b101100100 *
b101100100 ?
b101100100 U
b101100100 -
b101100100 :
b101100100 ;
b101100100 =
b101100100 N
1!
#900
0!
#905
b101101100 ,
b101101100 9
b101101100 V
b101101100 .
b101101100 <
b101101100 T
b101101000 *
b101101000 ?
b101101000 U
b101101000 -
b101101000 :
b101101000 ;
b101101000 =
b101101000 N
1!
#910
0!
