cpu.vcd
$date
	Sat Jun 14 14:47:31 2025
$end
$version
	Icarus Verilog
$end
$timescale
	1s
$end
$scope module Top_Module_tb $end
$var reg 1 ! clk $end
$var reg 1 " rst $end
$scope module uut $end
$var wire 1 ! clk $end
$var wire 1 " rst $end
$var wire 1 # zero_top $end
$var wire 32 $ write_back_top [31:0] $end
$var wire 32 % read_data2_top [31:0] $end
$var wire 32 & read_data1_top [31:0] $end
$var wire 32 ' instruction_top [31:0] $end
$var wire 1 ( branch_top $end
$var wire 32 ) branch_target [31:0] $end
$var wire 1 * Reg_write_top $end
$var wire 32 + Pc_in_top [31:0] $end
$var wire 32 , PC_top [31:0] $end
$var wire 32 - NexttoPc_top [31:0] $end
$var wire 32 . Mux1_out_top [31:0] $end
$var wire 1 / MemtoReg_top $end
$var wire 32 0 Mem_data_out_top [31:0] $end
$var wire 1 1 Mem_Write_top $end
$var wire 1 2 Mem_Read_top $end
$var wire 32 3 ImmExt_top [31:0] $end
$var wire 4 4 Control_out_top [3:0] $end
$var wire 32 5 ALU_out_top [31:0] $end
$var wire 1 6 ALUSrc_top $end
$var wire 2 7 ALUOp_top [1:0] $end
$scope module PC $end
$var wire 1 ! clk $end
$var wire 1 " rst $end
$var wire 32 8 pc_in [31:0] $end
$var reg 32 9 pc_out [31:0] $end
$upscope $end
$scope module Pc_adder $end
$var wire 32 : fromPc [31:0] $end
$var wire 32 ; NexttoPc [31:0] $end
$upscope $end
$scope module alu_control $end
$var wire 3 < fun3 [2:0] $end
$var wire 7 = fun7 [6:0] $end
$var wire 2 > ALUOp [1:0] $end
$var reg 4 ? Control_out [3:0] $end
$upscope $end
$scope module alu_unit $end
$var wire 4 @ control_in [3:0] $end
$var wire 32 A B [31:0] $end
$var wire 32 B A [31:0] $end
$var reg 32 C ALU_out [31:0] $end
$var reg 1 # zero $end
$upscope $end
$scope module control_unit $end
$var wire 7 D instruction [6:0] $end
$var reg 2 E ALUOp [1:0] $end
$var reg 1 6 ALUSrc $end
$var reg 1 1 MemWrite $end
$var reg 1 2 Memread $end
$var reg 1 / MemtoReg $end
$var reg 1 * Reg_write $end
$var reg 1 ( branch $end
$upscope $end
$scope module data_memory $end
$var wire 1 2 Mem_Read $end
$var wire 1 1 Mem_Write $end
$var wire 32 F Read_addr [31:0] $end
$var wire 1 ! clk $end
$var wire 1 " rst $end
$var wire 32 G Write_Data [31:0] $end
$var wire 32 H Mem_data_out [31:0] $end
$var integer 32 I i [31:0] $end
$upscope $end
$scope module instruction_mem $end
$var wire 1 ! clk $end
$var wire 32 J read_addr [31:0] $end
$var wire 1 " rst $end
$var reg 32 K instruction_out [31:0] $end
$var integer 32 L i [31:0] $end
$upscope $end
$scope module mux_1_Alu $end
$var wire 1 6 Sel1 $end
$var wire 32 M Mux1_out [31:0] $end
$var wire 32 N B1 [31:0] $end
$var wire 32 O A1 [31:0] $end
$upscope $end
$scope module mux_2_adder_pc $end
$var wire 32 P A2 [31:0] $end
$var wire 1 Q Sel2 $end
$var wire 32 R Mux2_out [31:0] $end
$var wire 32 S B2 [31:0] $end
$upscope $end
$scope module mux_3_data_mem $end
$var wire 32 T A3 [31:0] $end
$var wire 32 U B3 [31:0] $end
$var wire 1 / Sel3 $end
$var wire 32 V Mux3_out [31:0] $end
$upscope $end
$scope module u_Branch_Adder $end
$var wire 32 W PC [31:0] $end
$var wire 32 X offset [31:0] $end
$var reg 32 Y branch_target [31:0] $end
$upscope $end
$scope module u_Immidiate_generator $end
$var wire 32 Z instruction [31:0] $end
$var reg 32 [ ImmExt [31:0] $end
$upscope $end
$scope module u_reg_file $end
$var wire 5 \ Rd [4:0] $end
$var wire 1 * Reg_write $end
$var wire 5 ] Rs1 [4:0] $end
$var wire 5 ^ Rs2 [4:0] $end
$var wire 1 ! clk $end
$var wire 1 " rst $end
$var wire 32 _ write_data [31:0] $end
$var wire 32 ` read_data2 [31:0] $end
$var wire 32 a read_data1 [31:0] $end
$upscope $end
$upscope $end
$upscope $end
$enddefinitions $end
$comment Show the parameter values. $end
$dumpall
$end
#0
$dumpvars
b0 a
b0 `
b0 _
b0 ^
b0 ]
b0 \
b0 [
b0 Z
b0 Y
b0 X
b0 W
b0 V
b0 U
b0 T
b0 S
b100 R
0Q
b100 P
b0 O
b0 N
b0 M
b1000000 L
b0 K
b0 J
b1000000 I
b0 H
b0 G
b0 F
b0 E
b0 D
b0 C
b0 B
b0 A
b0 @
b0 ?
b0 >
b0 =
b0 <
b100 ;
b0 :
b0 9
b100 8
b0 7
06
b0 5
b0 4
b0 3
02
01
b0 0
0/
b0 .
b100 -
b0 ,
b100 +
0*
b0 )
0(
b0 '
b0 &
b0 %
b0 $
1#
1"
0!
$end
#5
b1000000 I
1!
#10
0!
#12
0"
#15
1*
b10 7
b10 >
b10 E
b100 )
b100 S
b100 Y
b1101001 $
b1101001 V
b1101001 _
b1000001 .
b1000001 A
b1000001 M
0#
b1101001 5
b1101001 C
b1101001 F
b1101001 T
b1000001 %
b1000001 G
b1000001 O
b1000001 `
b101000 &
b101000 B
b101000 a
b110011 D
b1101 \
b11001 ^
b10000 ]
b1000 +
b1000 8
b1000 R
b1100110000000011010110011 '
b1100110000000011010110011 K
b1100110000000011010110011 Z
b1000 -
b1000 ;
b1000 P
b100 ,
b100 9
b100 :
b100 J
b100 W
1!
#20
0!
#25
b1 4
b1 ?
b1 @
b1000 )
b1000 S
b1000 Y
b11111111111111111111111111110110 $
b11111111111111111111111111110110 V
b11111111111111111111111111110110 _
b1100 .
b1100 A
b1100 M
b11111111111111111111111111110110 5
b11111111111111111111111111110110 C
b11111111111111111111111111110110 F
b11111111111111111111111111110110 T
b1100 %
b1100 G
b1100 O
b1100 `
b10 &
b10 B
b10 a
b100000 =
b101 \
b11 ^
b1000 ]
b1100 +
b1100 8
b1100 R
b1000000001101000000001010110011 '
b1000000001101000000001010110011 K
b1000000001101000000001010110011 Z
b1100 -
b1100 ;
b1100 P
b1000 ,
b1000 9
b1000 :
b1000 J
b1000 W
1!
#30
0!
#35
b0 $
b0 V
b0 _
1#
b0 5
b0 C
b0 F
b0 T
b10 4
b10 ?
b10 @
b1100 )
b1100 S
b1100 Y
b111 <
b0 =
b1 \
b10 ]
b10000 +
b10000 8
b10000 R
b1100010111000010110011 '
b1100010111000010110011 K
b1100010111000010110011 Z
b10000 -
b10000 ;
b10000 P
b1100 ,
b1100 9
b1100 :
b1100 J
b1100 W
1!
#40
0!
#45
b11 4
b11 ?
b11 @
b10000 )
b10000 S
b10000 Y
b11111111111111111111111111111110 $
b11111111111111111111111111111110 V
b11111111111111111111111111111110 _
b11111111111111111111111111110110 .
b11111111111111111111111111110110 A
b11111111111111111111111111110110 M
0#
b11111111111111111111111111111110 5
b11111111111111111111111111111110 C
b11111111111111111111111111111110 F
b11111111111111111111111111111110 T
b11111111111111111111111111110110 %
b11111111111111111111111111110110 G
b11111111111111111111111111110110 O
b11111111111111111111111111110110 `
b1100 &
b1100 B
b1100 a
b110 <
b100 \
b101 ^
b11 ]
b10100 +
b10100 8
b10100 R
b10100011110001000110011 '
b10100011110001000110011 K
b10100011110001000110011 Z
b10100 -
b10100 ;
b10100 P
b10000 ,
b10000 9
b10000 :
b10000 J
b10000 W
1!
#50
0!
#55
b11111111111111111111111111111010 $
b11111111111111111111111111111010 V
b11111111111111111111111111111010 _
b11111111111111111111111111111010 5
b11111111111111111111111111111010 C
b11111111111111111111111111111010 F
b11111111111111111111111111111010 T
b100 4
b100 ?
b100 @
b10100 )
b10100 S
b10100 Y
b100 <
b11000 +
b11000 8
b11000 R
b10100011100001000110011 '
b10100011100001000110011 K
b10100011100001000110011 Z
b11000 -
b11000 ;
b11000 P
b10100 ,
b10100 9
b10100 :
b10100 J
b10100 W
1!
#60
0!
#65
b11000000000000000000000000 $
b11000000000000000000000000 V
b11000000000000000000000000 _
b11000000000000000000000000 5
b11000000000000000000000000 C
b11000000000000000000000000 F
b11000000000000000000000000 T
b101 4
b101 ?
b101 @
b11000 )
b11000 S
b11000 Y
b1 <
b11100 +
b11100 8
b11100 R
b10100011001001000110011 '
b10100011001001000110011 K
b10100011001001000110011 Z
b11100 -
b11100 ;
b11100 P
b11000 ,
b11000 9
b11000 :
b11000 J
b11000 W
1!
#70
0!
#75
b0 $
b0 V
b0 _
1#
b0 5
b0 C
b0 F
b0 T
b110 4
b110 ?
b110 @
b11100 )
b11100 S
b11100 Y
b101 <
b100000 +
b100000 8
b100000 R
b10100011101001000110011 '
b10100011101001000110011 K
b10100011101001000110011 Z
b100000 -
b100000 ;
b100000 P
b11100 ,
b11100 9
b11100 :
b11100 J
b11100 W
1!
#80
0!
#85
b111 4
b111 ?
b111 @
b100000 )
b100000 S
b100000 Y
b11 $
b11 V
b11 _
0#
b11 5
b11 C
b11 F
b11 T
b10 .
b10 A
b10 M
b10 %
b10 G
b10 O
b10 `
b100000 =
b101 \
b10 ^
b100100 +
b100100 8
b100100 R
b1000000001000011101001010110011 '
b1000000001000011101001010110011 K
b1000000001000011101001010110011 Z
b100100 -
b100100 ;
b100100 P
b100000 ,
b100000 9
b100000 :
b100000 J
b100000 W
1!
#90
0!
#95
b0 $
b0 V
b0 _
1#
b0 5
b0 C
b0 F
b0 T
b1000 4
b1000 ?
b1000 @
b100100 )
b100100 S
b100100 Y
b10 <
b0 =
b101000 +
b101000 8
b101000 R
b1000011010001010110011 '
b1000011010001010110011 K
b1000011010001010110011 Z
b101000 -
b101000 ;
b101000 P
b100100 ,
b100100 9
b100100 :
b100100 J
b100100 W
1!
#100
0!
#105
b1010010 $
b1010010 V
b1010010 _
0#
b1010010 5
b1010010 C
b1010010 F
b1010010 T
b0 4
b0 ?
b0 @
16
b101010 )
b101010 S
b101010 Y
b1010000 &
b1010000 B
b1010000 a
b10 3
b10 N
b10 X
b10 [
b0 <
b10011 D
b10110 \
b10101 ]
b101100 +
b101100 8
b101100 R
b1010101000101100010011 '
b1010101000101100010011 K
b1010101000101100010011 Z
b101100 -
b101100 ;
b101100 P
b101000 ,
b101000 9
b101000 :
b101000 J
b101000 W
1!
#110
0!
#115
b11 4
b11 ?
b11 @
b101111 )
b101111 S
b101111 Y
b11 $
b11 V
b11 _
b11 5
b11 C
b11 F
b11 T
b11 .
b11 A
b11 M
b1100 %
b1100 G
b1100 O
b1100 `
b10 &
b10 B
b10 a
b11 3
b11 N
b11 X
b11 [
b110 <
b1001 \
b11 ^
b1000 ]
b110000 +
b110000 8
b110000 R
b1101000110010010010011 '
b1101000110010010010011 K
b1101000110010010010011 Z
b110000 -
b110000 ;
b110000 P
b101100 ,
b101100 9
b101100 :
b101100 J
b101100 W
1!
#120
0!
#125
b110100 )
b110100 S
b110100 Y
b110 $
b110 V
b110 _
b110 5
b110 C
b110 F
b110 T
b100 .
b100 A
b100 M
b0 %
b0 G
b0 O
b0 `
b100 3
b100 N
b100 X
b100 [
b100 ^
b110100 +
b110100 8
b110100 R
b10001000110010010010011 '
b10001000110010010010011 K
b10001000110010010010011 Z
b110100 -
b110100 ;
b110100 P
b110000 ,
b110000 9
b110000 :
b110000 J
b110000 W
1!
#130
0!
#135
1#
b10 4
b10 ?
b10 @
b111001 )
b111001 S
b111001 Y
b0 $
b0 V
b0 _
b0 5
b0 C
b0 F
b0 T
b101 .
b101 A
b101 M
b101 3
b101 N
b101 X
b101 [
b111 <
b1 \
b101 ^
b10 ]
b111000 +
b111000 8
b111000 R
b10100010111000010010011 '
b10100010111000010010011 K
b10100010111000010010011 Z
b111000 -
b111000 ;
b111000 P
b110100 ,
b110100 9
b110100 :
b110100 J
b110100 W
1!
#140
0!
#145
b101 4
b101 ?
b101 @
b111110 )
b111110 S
b111110 Y
b1100000000 $
b1100000000 V
b1100000000 _
0#
b1100000000 5
b1100000000 C
b1100000000 F
b1100000000 T
b110 .
b110 A
b110 M
b101100 %
b101100 G
b101100 O
b101100 `
b1100 &
b1100 B
b1100 a
b110 3
b110 N
b110 X
b110 [
b1 <
b100 \
b110 ^
b11 ]
b111100 +
b111100 8
b111100 R
b11000011001001000010011 '
b11000011001001000010011 K
b11000011001001000010011 Z
b111100 -
b111100 ;
b111100 P
b111000 ,
b111000 9
b111000 :
b111000 J
b111000 W
1!
#150
0!
#155
1#
b110 4
b110 ?
b110 @
b1000011 )
b1000011 S
b1000011 Y
b0 $
b0 V
b0 _
b0 5
b0 C
b0 F
b0 T
b111 .
b111 A
b111 M
b100 %
b100 G
b100 O
b100 `
b111 3
b111 N
b111 X
b111 [
b101 <
b111 ^
b1000000 +
b1000000 8
b1000000 R
b11100011101001000010011 '
b11100011101001000010011 K
b11100011101001000010011 Z
b1000000 -
b1000000 ;
b1000000 P
b111100 ,
b111100 9
b111100 :
b111100 J
b111100 W
1!
#160
0!
#165
b1001000 )
b1001000 S
b1001000 Y
b1000 .
b1000 A
b1000 M
b10 %
b10 G
b10 O
b10 `
b1000 3
b1000 N
b1000 X
b1000 [
b101 \
b1000 ^
b1000100 +
b1000100 8
b1000100 R
b100000011101001010010011 '
b100000011101001010010011 K
b100000011101001010010011 Z
b1000100 -
b1000100 ;
b1000100 P
b1000000 ,
b1000000 9
b1000000 :
b1000000 J
b1000000 W
1!
#170
0!
#175
b1000 4
b1000 ?
b1000 @
b1001101 )
b1001101 S
b1001101 Y
b1001 .
b1001 A
b1001 M
b110 %
b110 G
b110 O
b110 `
b1001 3
b1001 N
b1001 X
b1001 [
b10 <
b1001 ^
b1001000 +
b1001000 8
b1001000 R
b100100011010001010010011 '
b100100011010001010010011 K
b100100011010001010010011 Z
b1001000 -
b1001000 ;
b1001000 P
b1000100 ,
b1000100 9
b1000100 :
b1000100 J
b1000100 W
1!
#180
0!
#185
b111000 $
b111000 V
b111000 _
b111000 0
b111000 H
b111000 U
0#
b10001 5
b10001 C
b10001 F
b10001 T
b0 4
b0 ?
b0 @
1/
12
b0 7
b0 >
b0 E
b1001101 )
b1001101 S
b1001101 Y
b101 .
b101 A
b101 M
b0 %
b0 G
b0 O
b0 `
b101 3
b101 N
b101 X
b101 [
b0 <
b11 D
b1001 \
b101 ^
b1001100 +
b1001100 8
b1001100 R
b10100011000010010000011 '
b10100011000010010000011 K
b10100011000010010000011 Z
b1001100 -
b1001100 ;
b1001100 P
b1001000 ,
b1001000 9
b1001000 :
b1001000 J
b1001000 W
1!
#190
0!
#195
b1001111 )
b1001111 S
b1001111 Y
b1000001 $
b1000001 V
b1000001 _
b1000001 0
b1000001 H
b1000001 U
b1111 5
b1111 C
b1111 F
b1111 T
b11 .
b11 A
b11 M
b1100 %
b1100 G
b1100 O
b1100 `
b11 3
b11 N
b11 X
b11 [
b1 <
b11 ^
b1010000 +
b1010000 8
b1010000 R
b1100011001010010000011 '
b1100011001010010000011 K
b1100011001010010000011 Z
b1010000 -
b1010000 ;
b1010000 P
b1001100 ,
b1001100 9
b1001100 :
b1001100 J
b1001100 W
1!
#200
0!
#205
b1011111 )
b1011111 S
b1011111 Y
b111000 $
b111000 V
b111000 _
b111000 0
b111000 H
b111000 U
b10001 5
b10001 C
b10001 F
b10001 T
b1111 .
b1111 A
b1111 M
b11110 %
b11110 G
b11110 O
b11110 `
b10 &
b10 B
b10 a
b1111 3
b1111 N
b1111 X
b1111 [
b10 <
b1000 \
b1111 ^
b10 ]
b1010100 +
b1010100 8
b1010100 R
b111100010010010000000011 '
b111100010010010000000011 K
b111100010010010000000011 Z
b1010100 -
b1010100 ;
b1010100 P
b1010000 ,
b1010000 9
b1010000 :
b1010000 J
b1010000 W
1!
#210
0!
#215
0/
0*
02
11
b1011100 )
b1011100 S
b1011100 Y
b10100 $
b10100 V
b10100 _
b0 0
b0 H
b0 U
b10100 5
b10100 C
b10100 F
b10100 T
b1000 .
b1000 A
b1000 M
b1100 &
b1100 B
b1100 a
b1000 3
b1000 N
b1000 X
b1000 [
b0 <
b100011 D
b11 ]
b1011000 +
b1011000 8
b1011000 R
b111100011000010000100011 '
b111100011000010000100011 K
b111100011000010000100011 Z
b1011000 -
b1011000 ;
b1011000 P
b1010100 ,
b1010100 9
b1010100 :
b1010100 J
b1010100 W
1!
#220
0!
#225
b1100010 )
b1100010 S
b1100010 Y
b110110 $
b110110 V
b110110 _
b110110 5
b110110 C
b110110 F
b110110 T
b1010 .
b1010 A
b1010 M
b10100 %
b10100 G
b10100 O
b10100 `
b101100 &
b101100 B
b101100 a
b1010 3
b1010 N
b1010 X
b1010 [
b1 <
b1010 \
b1110 ^
b110 ]
b1011100 +
b1011100 8
b1011100 R
b111000110001010100100011 '
b111000110001010100100011 K
b111000110001010100100011 Z
b1011100 -
b1011100 ;
b1011100 P
b1011000 ,
b1011000 9
b1011000 :
b1011000 J
b1011000 W
1!
#230
0!
#235
b1101000 )
b1101000 S
b1101000 Y
b111000 $
b111000 V
b111000 _
b111000 5
b111000 C
b111000 F
b111000 T
b1100 .
b1100 A
b1100 M
b1100 3
b1100 N
b1100 X
b1100 [
b10 <
b1100 \
b1100000 +
b1100000 8
b1100000 R
b111000110010011000100011 '
b111000110010011000100011 K
b111000110010011000100011 Z
b1100000 -
b1100000 ;
b1100000 P
b1011100 ,
b1011100 9
b1011100 :
b1011100 J
b1011100 W
1!
#240
0!
#245
b1000001 .
b1000001 A
b1000001 M
06
01
1(
b11 7
b11 >
b11 E
b1101100 )
b1101100 S
b1101100 Y
b10000010 $
b10000010 V
b10000010 _
b10000010 5
b10000010 C
b10000010 F
b10000010 T
b1000001 %
b1000001 G
b1000001 O
b1000001 `
b1000001 &
b1000001 B
b1000001 a
b0 <
b1100011 D
b1001 ^
b1001 ]
b1100100 +
b1100100 8
b1100100 R
b100101001000011001100011 '
b100101001000011001100011 K
b100101001000011001100011 Z
b1100100 -
b1100100 ;
b1100100 P
b1100000 ,
b1100000 9
b1100000 :
b1100000 J
b1100000 W
1!
#250
0!
#255
b1110010 )
b1110010 S
b1110010 Y
b1110 3
b1110 N
b1110 X
b1110 [
b1 <
b1110 \
b1101000 +
b1101000 8
b1101000 R
b100101001001011101100011 '
b100101001001011101100011 K
b100101001001011101100011 Z
b1101000 -
b1101000 ;
b1101000 P
b1100100 ,
b1100100 9
b1100100 :
b1100100 J
b1100100 W
1!
#260
0!
#265
b101000000001101000 )
b101000000001101000 S
b101000000001101000 Y
1#
b0 $
b0 V
b0 _
b0 .
b0 A
b0 M
b0 5
b0 C
b0 F
b0 T
0(
b0 7
b0 >
b0 E
b0 %
b0 G
b0 O
b0 `
b0 &
b0 B
b0 a
b101000000000000000 3
b101000000000000000 N
b101000000000000000 X
b101000000000000000 [
b0 <
b110111 D
b11 \
b0 ^
b101 ]
b1101100 +
b1101100 8
b1101100 R
b101000000110110111 '
b101000000110110111 K
b101000000110110111 Z
b1101100 -
b1101100 ;
b1101100 P
b1101000 ,
b1101000 9
b1101000 :
b1101000 J
b1101000 W
1!
#270
0!
#275
b10100000001101100 )
b10100000001101100 S
b10100000001101100 Y
b10 $
b10 V
b10 _
0#
b10 5
b10 C
b10 F
b10 T
b10 &
b10 B
b10 a
b10100000000000000 3
b10100000000000000 N
b10100000000000000 X
b10100000000000000 [
b100 <
b10111 D
b101 \
b10 ]
b1110000 +
b1110000 8
b1110000 R
b10100001010010111 '
b10100001010010111 K
b10100001010010111 Z
b1110000 -
b1110000 ;
b1110000 P
b1101100 ,
b1101100 9
b1101100 :
b1101100 J
b1101100 W
1!
#280
0!
#285
b10100000001110000 )
b10100000001110000 S
b10100000001110000 Y
b1101111 D
b1 \
b1110100 +
b1110100 8
b1110100 R
b10100000011101111 '
b10100000011101111 K
b10100000011101111 Z
b1110100 -
b1110100 ;
b1110100 P
b1110000 ,
b1110000 9
b1110000 :
b1110000 J
b1110000 W
1!
#290
0!
#295
b1110100 )
b1110100 S
b1110100 Y
b0 $
b0 V
b0 _
1#
b0 5
b0 C
b0 F
b0 T
b0 &
b0 B
b0 a
b0 3
b0 N
b0 X
b0 [
b0 <
b0 D
b0 \
b0 ]
b1111000 +
b1111000 8
b1111000 R
b0 '
b0 K
b0 Z
b1111000 -
b1111000 ;
b1111000 P
b1110100 ,
b1110100 9
b1110100 :
b1110100 J
b1110100 W
1!
#300
0!
#305
b1111000 )
b1111000 S
b1111000 Y
b1111100 +
b1111100 8
b1111100 R
b1111100 -
b1111100 ;
b1111100 P
b1111000 ,
b1111000 9
b1111000 :
b1111000 J
b1111000 W
1!
#310
0!
#315
b1111100 )
b1111100 S
b1111100 Y
b10000000 +
b10000000 8
b10000000 R
b10000000 -
b10000000 ;
b10000000 P
b1111100 ,
b1111100 9
b1111100 :
b1111100 J
b1111100 W
1!
#320
0!
#325
b10000000 )
b10000000 S
b10000000 Y
b10000100 +
b10000100 8
b10000100 R
b10000100 -
b10000100 ;
b10000100 P
b10000000 ,
b10000000 9
b10000000 :
b10000000 J
b10000000 W
1!
#330
0!
#335
b10000100 )
b10000100 S
b10000100 Y
b10001000 +
b10001000 8
b10001000 R
b10001000 -
b10001000 ;
b10001000 P
b10000100 ,
b10000100 9
b10000100 :
b10000100 J
b10000100 W
1!
#340
0!
#345
b10001000 )
b10001000 S
b10001000 Y
b10001100 +
b10001100 8
b10001100 R
b10001100 -
b10001100 ;
b10001100 P
b10001000 ,
b10001000 9
b10001000 :
b10001000 J
b10001000 W
1!
#350
0!
#355
b10001100 )
b10001100 S
b10001100 Y
b10010000 +
b10010000 8
b10010000 R
b10010000 -
b10010000 ;
b10010000 P
b10001100 ,
b10001100 9
b10001100 :
b10001100 J
b10001100 W
1!
#360
0!
#365
b10010000 )
b10010000 S
b10010000 Y
b10010100 +
b10010100 8
b10010100 R
b10010100 -
b10010100 ;
b10010100 P
b10010000 ,
b10010000 9
b10010000 :
b10010000 J
b10010000 W
1!
#370
0!
#375
b10010100 )
b10010100 S
b10010100 Y
b10011000 +
b10011000 8
b10011000 R
b10011000 -
b10011000 ;
b10011000 P
b10010100 ,
b10010100 9
b10010100 :
b10010100 J
b10010100 W
1!
#380
0!
#385
b10011000 )
b10011000 S
b10011000 Y
b10011100 +
b10011100 8
b10011100 R
b10011100 -
b10011100 ;
b10011100 P
b10011000 ,
b10011000 9
b10011000 :
b10011000 J
b10011000 W
1!
#390
0!
#395
b10011100 )
b10011100 S
b10011100 Y
b10100000 +
b10100000 8
b10100000 R
b10100000 -
b10100000 ;
b10100000 P
b10011100 ,
b10011100 9
b10011100 :
b10011100 J
b10011100 W
1!
#400
0!
#405
b10100000 )
b10100000 S
b10100000 Y
b10100100 +
b10100100 8
b10100100 R
b10100100 -
b10100100 ;
b10100100 P
b10100000 ,
b10100000 9
b10100000 :
b10100000 J
b10100000 W
1!
#410
0!
#415
b10100100 )
b10100100 S
b10100100 Y
b10101000 +
b10101000 8
b10101000 R
b10101000 -
b10101000 ;
b10101000 P
b10100100 ,
b10100100 9
b10100100 :
b10100100 J
b10100100 W
1!
#420
0!
#425
b10101000 )
b10101000 S
b10101000 Y
b10101100 +
b10101100 8
b10101100 R
b10101100 -
b10101100 ;
b10101100 P
b10101000 ,
b10101000 9
b10101000 :
b10101000 J
b10101000 W
1!
#430
0!
#435
b10101100 )
b10101100 S
b10101100 Y
b10110000 +
b10110000 8
b10110000 R
b10110000 -
b10110000 ;
b10110000 P
b10101100 ,
b10101100 9
b10101100 :
b10101100 J
b10101100 W
1!
#440
0!
#445
b10110000 )
b10110000 S
b10110000 Y
b10110100 +
b10110100 8
b10110100 R
b10110100 -
b10110100 ;
b10110100 P
b10110000 ,
b10110000 9
b10110000 :
b10110000 J
b10110000 W
1!
#450
0!
#455
b10110100 )
b10110100 S
b10110100 Y
b10111000 +
b10111000 8
b10111000 R
b10111000 -
b10111000 ;
b10111000 P
b10110100 ,
b10110100 9
b10110100 :
b10110100 J
b10110100 W
1!
#460
0!
#465
b10111000 )
b10111000 S
b10111000 Y
b10111100 +
b10111100 8
b10111100 R
b10111100 -
b10111100 ;
b10111100 P
b10111000 ,
b10111000 9
b10111000 :
b10111000 J
b10111000 W
1!
#470
0!
#475
b10111100 )
b10111100 S
b10111100 Y
b11000000 +
b11000000 8
b11000000 R
b11000000 -
b11000000 ;
b11000000 P
b10111100 ,
b10111100 9
b10111100 :
b10111100 J
b10111100 W
1!
#480
0!
#485
b11000000 )
b11000000 S
b11000000 Y
b11000100 +
b11000100 8
b11000100 R
b11000100 -
b11000100 ;
b11000100 P
b11000000 ,
b11000000 9
b11000000 :
b11000000 J
b11000000 W
1!
#490
0!
#495
b11000100 )
b11000100 S
b11000100 Y
b11001000 +
b11001000 8
b11001000 R
b11001000 -
b11001000 ;
b11001000 P
b11000100 ,
b11000100 9
b11000100 :
b11000100 J
b11000100 W
1!
#500
0!
#505
b11001000 )
b11001000 S
b11001000 Y
b11001100 +
b11001100 8
b11001100 R
b11001100 -
b11001100 ;
b11001100 P
b11001000 ,
b11001000 9
b11001000 :
b11001000 J
b11001000 W
1!
#510
0!
#515
b11001100 )
b11001100 S
b11001100 Y
b11010000 +
b11010000 8
b11010000 R
b11010000 -
b11010000 ;
b11010000 P
b11001100 ,
b11001100 9
b11001100 :
b11001100 J
b11001100 W
1!
#520
0!
#525
b11010000 )
b11010000 S
b11010000 Y
b11010100 +
b11010100 8
b11010100 R
b11010100 -
b11010100 ;
b11010100 P
b11010000 ,
b11010000 9
b11010000 :
b11010000 J
b11010000 W
1!
#530
0!
#535
b11010100 )
b11010100 S
b11010100 Y
b11011000 +
b11011000 8
b11011000 R
b11011000 -
b11011000 ;
b11011000 P
b11010100 ,
b11010100 9
b11010100 :
b11010100 J
b11010100 W
1!
#540
0!
#545
b11011000 )
b11011000 S
b11011000 Y
b11011100 +
b11011100 8
b11011100 R
b11011100 -
b11011100 ;
b11011100 P
b11011000 ,
b11011000 9
b11011000 :
b11011000 J
b11011000 W
1!
#550
0!
#555
b11011100 )
b11011100 S
b11011100 Y
b11100000 +
b11100000 8
b11100000 R
b11100000 -
b11100000 ;
b11100000 P
b11011100 ,
b11011100 9
b11011100 :
b11011100 J
b11011100 W
1!
#560
0!
#565
b11100000 )
b11100000 S
b11100000 Y
b11100100 +
b11100100 8
b11100100 R
b11100100 -
b11100100 ;
b11100100 P
b11100000 ,
b11100000 9
b11100000 :
b11100000 J
b11100000 W
1!
#570
0!
#575
b11100100 )
b11100100 S
b11100100 Y
b11101000 +
b11101000 8
b11101000 R
b11101000 -
b11101000 ;
b11101000 P
b11100100 ,
b11100100 9
b11100100 :
b11100100 J
b11100100 W
1!
#580
0!
#585
b11101000 )
b11101000 S
b11101000 Y
b11101100 +
b11101100 8
b11101100 R
b11101100 -
b11101100 ;
b11101100 P
b11101000 ,
b11101000 9
b11101000 :
b11101000 J
b11101000 W
1!
#590
0!
#595
b11101100 )
b11101100 S
b11101100 Y
b11110000 +
b11110000 8
b11110000 R
b11110000 -
b11110000 ;
b11110000 P
b11101100 ,
b11101100 9
b11101100 :
b11101100 J
b11101100 W
1!
#600
0!
#605
b11110000 )
b11110000 S
b11110000 Y
b11110100 +
b11110100 8
b11110100 R
b11110100 -
b11110100 ;
b11110100 P
b11110000 ,
b11110000 9
b11110000 :
b11110000 J
b11110000 W
1!
#610
0!
#615
b11110100 )
b11110100 S
b11110100 Y
b11111000 +
b11111000 8
b11111000 R
b11111000 -
b11111000 ;
b11111000 P
b11110100 ,
b11110100 9
b11110100 :
b11110100 J
b11110100 W
1!
#620
0!
#625
b11111000 )
b11111000 S
b11111000 Y
b11111100 +
b11111100 8
b11111100 R
b11111100 -
b11111100 ;
b11111100 P
b11111000 ,
b11111000 9
b11111000 :
b11111000 J
b11111000 W
1!
#630
0!
#635
b11111100 )
b11111100 S
b11111100 Y
b100000000 +
b100000000 8
b100000000 R
b100000000 -
b100000000 ;
b100000000 P
b11111100 ,
b11111100 9
b11111100 :
b11111100 J
b11111100 W
1!
#640
0!
#645
b100000000 )
b100000000 S
b100000000 Y
bx $
bx V
bx _
bx .
bx A
bx M
x#
bx 5
bx C
bx F
bx T
bx %
bx G
bx O
bx `
bx &
bx B
bx a
bx <
bx =
bx D
bx \
bx ^
bx ]
b100000100 +
b100000100 8
b100000100 R
bx '
bx K
bx Z
b100000100 -
b100000100 ;
b100000100 P
b100000000 ,
b100000000 9
b100000000 :
b100000000 J
b100000000 W
1!
#650
0!
#655
b100000100 )
b100000100 S
b100000100 Y
b100001000 +
b100001000 8
b100001000 R
b100001000 -
b100001000 ;
b100001000 P
b100000100 ,
b100000100 9
b100000100 :
b100000100 J
b100000100 W
1!
#660
0!
#665
b100001000 )
b100001000 S
b100001000 Y
b100001100 +
b100001100 8
b100001100 R
b100001100 -
b100001100 ;
b100001100 P
b100001000 ,
b100001000 9
b100001000 :
b100001000 J
b100001000 W
1!
#670
0!
#675
b100001100 )
b100001100 S
b100001100 Y
b100010000 +
b100010000 8
b100010000 R
b100010000 -
b100010000 ;
b100010000 P
b100001100 ,
b100001100 9
b100001100 :
b100001100 J
b100001100 W
1!
#680
0!
#685
b100010000 )
b100010000 S
b100010000 Y
b100010100 +
b100010100 8
b100010100 R
b100010100 -
b100010100 ;
b100010100 P
b100010000 ,
b100010000 9
b100010000 :
b100010000 J
b100010000 W
1!
#690
0!
#695
b100010100 )
b100010100 S
b100010100 Y
b100011000 +
b100011000 8
b100011000 R
b100011000 -
b100011000 ;
b100011000 P
b100010100 ,
b100010100 9
b100010100 :
b100010100 J
b100010100 W
1!
#700
0!
#705
b100011000 )
b100011000 S
b100011000 Y
b100011100 +
b100011100 8
b100011100 R
b100011100 -
b100011100 ;
b100011100 P
b100011000 ,
b100011000 9
b100011000 :
b100011000 J
b100011000 W
1!
#710
0!
#715
b100011100 )
b100011100 S
b100011100 Y
b100100000 +
b100100000 8
b100100000 R
b100100000 -
b100100000 ;
b100100000 P
b100011100 ,
b100011100 9
b100011100 :
b100011100 J
b100011100 W
1!
